#define icon_planeZY_width 22
#define icon_planeZY_height 22
static unsigned char icon_planeZY_bits[] = {
   0x00, 0x00, 0x00, 0x00, 0x00, 0x00, 0x00, 0x00, 0x00, 0x00, 0x00, 0x00,
   0x00, 0x00, 0x00, 0x00, 0x00, 0x00, 0x00, 0x00, 0x00, 0xf8, 0x71, 0x1c,
   0x08, 0x21, 0x08, 0x88, 0x40, 0x04, 0x40, 0x80, 0x02, 0x60, 0x00, 0x01,
   0x20, 0x00, 0x01, 0x10, 0x02, 0x01, 0x08, 0x02, 0x01, 0xf8, 0xc3, 0x07,
   0x00, 0x00, 0x00, 0x00, 0x00, 0x00, 0x00, 0x00, 0x00, 0x00, 0x00, 0x00,
   0x00, 0x00, 0x00, 0x00, 0x00, 0x00 };
