%!PS-Adobe-3.0 EPSF-3.0
%%Creator: cairo 1.14.6 (http://cairographics.org)
%%CreationDate: Wed Nov 30 15:50:25 2016
%%Pages: 1
%%DocumentData: Clean7Bit
%%LanguageLevel: 2
%%BoundingBox: 0 -1 1148 1084
%%EndComments
%%BeginProlog
save
50 dict begin
/q { gsave } bind def
/Q { grestore } bind def
/cm { 6 array astore concat } bind def
/w { setlinewidth } bind def
/J { setlinecap } bind def
/j { setlinejoin } bind def
/M { setmiterlimit } bind def
/d { setdash } bind def
/m { moveto } bind def
/l { lineto } bind def
/c { curveto } bind def
/h { closepath } bind def
/re { exch dup neg 3 1 roll 5 3 roll moveto 0 rlineto
      0 exch rlineto 0 rlineto closepath } bind def
/S { stroke } bind def
/f { fill } bind def
/f* { eofill } bind def
/n { newpath } bind def
/W { clip } bind def
/W* { eoclip } bind def
/BT { } bind def
/ET { } bind def
/pdfmark where { pop globaldict /?pdfmark /exec load put }
    { globaldict begin /?pdfmark /pop load def /pdfmark
    /cleartomark load def end } ifelse
/BDC { mark 3 1 roll /BDC pdfmark } bind def
/EMC { mark /EMC pdfmark } bind def
/cairo_store_point { /cairo_point_y exch def /cairo_point_x exch def } def
/Tj { show currentpoint cairo_store_point } bind def
/TJ {
  {
    dup
    type /stringtype eq
    { show } { -0.001 mul 0 cairo_font_matrix dtransform rmoveto } ifelse
  } forall
  currentpoint cairo_store_point
} bind def
/cairo_selectfont { cairo_font_matrix aload pop pop pop 0 0 6 array astore
    cairo_font exch selectfont cairo_point_x cairo_point_y moveto } bind def
/Tf { pop /cairo_font exch def /cairo_font_matrix where
      { pop cairo_selectfont } if } bind def
/Td { matrix translate cairo_font_matrix matrix concatmatrix dup
      /cairo_font_matrix exch def dup 4 get exch 5 get cairo_store_point
      /cairo_font where { pop cairo_selectfont } if } bind def
/Tm { 2 copy 8 2 roll 6 array astore /cairo_font_matrix exch def
      cairo_store_point /cairo_font where { pop cairo_selectfont } if } bind def
/g { setgray } bind def
/rg { setrgbcolor } bind def
/d1 { setcachedevice } bind def
%%EndProlog
%%BeginSetup
%%EndSetup
%%Page: 1 1
%%BeginPageSetup
%%PageBoundingBox: 0 -1 1148 1084
%%EndPageSetup
q 0 -1 1148 1085 rectclip q
0.235294 0 0 rg
823.797 469.55 m 914.551 378.823 l 1028.695 444.706 l 937.945 535.429 l
 h
823.797 469.55 m f*
0 g
8.424936 w
0 J
1 j
[] 0.0 d
4 M q 1 0 0 -0.999699 0 1083.342651 cm
823.797 613.978 m 914.551 704.732 l 1028.695 638.829 l 937.945 548.079 
l h
823.797 613.978 m S Q
0.235294 0 0 rg
914.551 378.823 m 914.551 267.741 l 1028.695 333.624 l 1028.695 444.706
 l h
914.551 378.823 m f*
0 g
q 1 0 0 -0.999699 0 1083.342651 cm
914.551 704.732 m 914.551 815.847 l 1028.695 749.945 l 1028.695 638.829
 l h
914.551 704.732 m S Q
0.235294 0 0 rg
823.797 469.55 m 914.551 378.823 l 914.551 267.741 l 823.797 358.464 l 
h
823.797 469.55 m f*
0 g
q 1 0 0 -0.999699 0 1083.342651 cm
823.797 613.978 m 914.551 704.732 l 914.551 815.847 l 823.797 725.097 l
 h
823.797 613.978 m S Q
0.235294 0 0 rg
709.652 403.667 m 800.402 312.944 l 914.547 378.823 l 823.797 469.55 l 
h
709.652 403.667 m f*
0 g
q 1 0 0 -0.999699 0 1083.342651 cm
709.652 679.881 m 800.402 770.631 l 914.547 704.732 l 823.797 613.978 l
 h
709.652 679.881 m S Q
0.235294 0 0 rg
800.402 312.944 m 800.402 201.858 l 914.547 267.741 l 914.547 378.823 l
 h
800.402 312.944 m f*
0 g
q 1 0 0 -0.999699 0 1083.342651 cm
800.402 770.631 m 800.402 881.75 l 914.547 815.847 l 914.547 704.732 l 
h
800.402 770.631 m S Q
0.235294 0 0 rg
709.652 403.667 m 800.402 312.944 l 800.402 201.858 l 709.652 292.581 l
 h
709.652 403.667 m f*
0 g
q 1 0 0 -0.999699 0 1083.342651 cm
709.652 679.881 m 800.402 770.631 l 800.402 881.75 l 709.652 791 l h
709.652 679.881 m S Q
0.235294 0 0 rg
595.508 337.784 m 686.258 247.061 l 800.402 312.94 l 709.652 403.667 l 
h
595.508 337.784 m f*
0 g
q 1 0 0 -0.999699 0 1083.342651 cm
595.508 745.783 m 686.258 836.533 l 800.402 770.635 l 709.652 679.881 l
 h
595.508 745.783 m S Q
0.235294 0 0 rg
686.258 247.061 m 686.258 135.975 l 800.402 201.858 l 800.402 312.94 l 
h
686.258 247.061 m f*
0 g
q 1 0 0 -0.999699 0 1083.342651 cm
686.258 836.533 m 686.258 947.653 l 800.402 881.75 l 800.402 770.635 l 
h
686.258 836.533 m S Q
0.235294 0 0 rg
595.508 337.784 m 686.258 247.061 l 686.258 135.975 l 595.508 226.698 l
 h
595.508 337.784 m f*
0 g
q 1 0 0 -0.999699 0 1083.342651 cm
595.508 745.783 m 686.258 836.533 l 686.258 947.653 l 595.508 856.903 l
 h
595.508 745.783 m S Q
0.470588 0 0 rg
481.359 382.983 m 572.109 292.261 l 686.258 358.143 l 595.508 448.866 l
 h
481.359 382.983 m f*
0 g
q 1 0 0 -0.999699 0 1083.342651 cm
481.359 700.57 m 572.109 791.32 l 686.258 725.418 l 595.508 634.668 l h
481.359 700.57 m S Q
0.470588 0 0 rg
572.109 292.261 m 572.109 181.179 l 686.258 247.061 l 686.258 358.143 l
 h
572.109 292.261 m f*
0 g
q 1 0 0 -0.999699 0 1083.342651 cm
572.109 791.32 m 572.109 902.436 l 686.258 836.533 l 686.258 725.418 l 
h
572.109 791.32 m S Q
0.470588 0 0 rg
481.359 382.983 m 572.109 292.261 l 572.109 181.179 l 481.359 271.901 l
 h
481.359 382.983 m f*
0 g
q 1 0 0 -0.999699 0 1083.342651 cm
481.359 700.57 m 572.109 791.32 l 572.109 902.436 l 481.359 811.686 l h
481.359 700.57 m S Q
0.705882 0.0784314 0 rg
481.359 494.069 m 572.109 403.347 l 686.258 469.229 l 595.508 559.952 l
 h
481.359 494.069 m f*
0 g
q 1 0 0 -0.999699 0 1083.342651 cm
481.359 589.451 m 572.109 680.201 l 686.258 614.298 l 595.508 523.548 l
 h
481.359 589.451 m S Q
0.705882 0.0784314 0 rg
572.109 403.347 m 572.109 292.261 l 686.258 358.143 l 686.258 469.229 l
 h
572.109 403.347 m f*
0 g
q 1 0 0 -0.999699 0 1083.342651 cm
572.109 680.201 m 572.109 791.32 l 686.258 725.418 l 686.258 614.298 l 
h
572.109 680.201 m S Q
0.705882 0.0784314 0 rg
481.359 494.069 m 572.109 403.347 l 572.109 292.261 l 481.359 382.983 l
 h
481.359 494.069 m f*
0 g
q 1 0 0 -0.999699 0 1083.342651 cm
481.359 589.451 m 572.109 680.201 l 572.109 791.32 l 481.359 700.57 l h
481.359 589.451 m S Q
0.941176 0.47451 0 rg
481.359 605.155 m 572.109 514.432 l 686.258 580.311 l 595.508 671.038 l
 h
481.359 605.155 m f*
0 g
q 1 0 0 -0.999699 0 1083.342651 cm
481.359 478.332 m 572.109 569.082 l 686.258 503.183 l 595.508 412.429 l
 h
481.359 478.332 m S Q
0.941176 0.47451 0 rg
572.109 514.432 m 572.109 403.347 l 686.258 469.229 l 686.258 580.311 l
 h
572.109 514.432 m f*
0 g
q 1 0 0 -0.999699 0 1083.342651 cm
572.109 569.082 m 572.109 680.201 l 686.258 614.298 l 686.258 503.183 l
 h
572.109 569.082 m S Q
0.941176 0.47451 0 rg
481.359 605.155 m 572.109 514.432 l 572.109 403.347 l 481.359 494.069 l
 h
481.359 605.155 m f*
0 g
q 1 0 0 -0.999699 0 1083.342651 cm
481.359 478.332 m 572.109 569.082 l 572.109 680.201 l 481.359 589.451 l
 h
481.359 478.332 m S Q
0.235294 0 0 rg
4.211 568.913 m 94.965 478.186 l 209.109 544.069 l 118.359 634.792 l h
4.211 568.913 m f*
0 g
q 1 0 0 -0.999699 0 1083.342651 cm
4.211 514.585 m 94.965 605.339 l 209.109 539.436 l 118.359 448.686 l h
4.211 514.585 m S Q
0.235294 0 0 rg
94.965 478.186 m 94.965 367.104 l 209.109 432.987 l 209.109 544.069 l h
94.965 478.186 m f*
0 g
q 1 0 0 -0.999699 0 1083.342651 cm
94.965 605.339 m 94.965 716.454 l 209.109 650.551 l 209.109 539.436 l h
94.965 605.339 m S Q
0.235294 0 0 rg
4.211 568.913 m 94.965 478.186 l 94.965 367.104 l 4.211 457.827 l h
4.211 568.913 m f*
0 g
q 1 0 0 -0.999699 0 1083.342651 cm
4.211 514.585 m 94.965 605.339 l 94.965 716.454 l 4.211 625.704 l h
4.211 514.585 m S Q
0.462745 0 0 rg
94.965 589.272 m 185.715 498.55 l 299.859 564.432 l 209.109 655.155 l h
94.965 589.272 m f*
0 g
q 1 0 0 -0.999699 0 1083.342651 cm
94.965 494.219 m 185.715 584.969 l 299.859 519.067 l 209.109 428.317 l 
h
94.965 494.219 m S Q
0.462745 0 0 rg
185.715 498.55 m 185.715 387.464 l 299.859 453.347 l 299.859 564.432 l 
h
185.715 498.55 m f*
0 g
q 1 0 0 -0.999699 0 1083.342651 cm
185.715 584.969 m 185.715 696.089 l 299.859 630.186 l 299.859 519.067 l
 h
185.715 584.969 m S Q
0.462745 0 0 rg
94.965 589.272 m 185.715 498.55 l 185.715 387.464 l 94.965 478.186 l h
94.965 589.272 m f*
0 g
q 1 0 0 -0.999699 0 1083.342651 cm
94.965 494.219 m 185.715 584.969 l 185.715 696.089 l 94.965 605.339 l h
94.965 494.219 m S Q
1 0.937255 0.333333 rg
4.211 1013.249 m 94.965 922.526 l 209.109 988.409 l 118.359 1079.132 l 
h
4.211 1013.249 m f*
0 g
q 1 0 0 -0.999699 0 1083.342651 cm
4.211 70.115 m 94.965 160.865 l 209.109 94.962 l 118.359 4.212 l h
4.211 70.115 m S Q
1 0.937255 0.333333 rg
94.965 922.526 m 94.965 811.44 l 209.109 877.323 l 209.109 988.409 l h
94.965 922.526 m f*
0 g
q 1 0 0 -0.999699 0 1083.342651 cm
94.965 160.865 m 94.965 271.984 l 209.109 206.082 l 209.109 94.962 l h
94.965 160.865 m S Q
1 0.937255 0.333333 rg
4.211 1013.249 m 94.965 922.526 l 94.965 811.44 l 4.211 902.163 l h
4.211 1013.249 m f*
0 g
q 1 0 0 -0.999699 0 1083.342651 cm
4.211 70.115 m 94.965 160.865 l 94.965 271.984 l 4.211 181.234 l h
4.211 70.115 m S Q
0.941176 0.47451 0 rg
94.965 811.44 m 185.715 720.718 l 299.859 786.6 l 209.109 877.323 l h
94.965 811.44 m f*
0 g
q 1 0 0 -0.999699 0 1083.342651 cm
94.965 271.984 m 185.715 362.734 l 299.859 296.832 l 209.109 206.082 l 
h
94.965 271.984 m S Q
0.941176 0.47451 0 rg
185.715 720.718 m 185.715 609.636 l 299.859 675.515 l 299.859 786.6 l h
185.715 720.718 m f*
0 g
q 1 0 0 -0.999699 0 1083.342651 cm
185.715 362.734 m 185.715 473.85 l 299.859 407.951 l 299.859 296.832 l 
h
185.715 362.734 m S Q
0.941176 0.47451 0 rg
94.965 811.44 m 185.715 720.718 l 185.715 609.636 l 94.965 700.358 l h
94.965 811.44 m f*
0 g
q 1 0 0 -0.999699 0 1083.342651 cm
94.965 271.984 m 185.715 362.734 l 185.715 473.85 l 94.965 383.1 l h
94.965 271.984 m S Q
0.705882 0.0784314 0 rg
185.715 609.636 m 276.465 518.909 l 390.609 584.792 l 299.859 675.515 l
 h
185.715 609.636 m f*
0 g
q 1 0 0 -0.999699 0 1083.342651 cm
185.715 473.85 m 276.465 564.604 l 390.609 498.701 l 299.859 407.951 l 
h
185.715 473.85 m S Q
0.705882 0.0784314 0 rg
276.465 518.909 m 276.465 407.827 l 390.609 473.71 l 390.609 584.792 l 
h
276.465 518.909 m f*
0 g
q 1 0 0 -0.999699 0 1083.342651 cm
276.465 564.604 m 276.465 675.719 l 390.609 609.817 l 390.609 498.701 l
 h
276.465 564.604 m S Q
0.705882 0.0784314 0 rg
185.715 609.636 m 276.465 518.909 l 276.465 407.827 l 185.715 498.55 l 
h
185.715 609.636 m f*
0 g
q 1 0 0 -0.999699 0 1083.342651 cm
185.715 473.85 m 276.465 564.604 l 276.465 675.719 l 185.715 584.969 l 
h
185.715 473.85 m S Q
0.470588 0 0 rg
276.465 407.827 m 367.215 317.104 l 481.359 382.987 l 390.609 473.71 l 
h
276.465 407.827 m f*
0 g
q 1 0 0 -0.999699 0 1083.342651 cm
276.465 675.719 m 367.215 766.469 l 481.359 700.567 l 390.609 609.817 l
 h
276.465 675.719 m S Q
0.470588 0 0 rg
367.215 317.104 m 367.215 206.018 l 481.359 271.901 l 481.359 382.987 l
 h
367.215 317.104 m f*
0 g
q 1 0 0 -0.999699 0 1083.342651 cm
367.215 766.469 m 367.215 877.589 l 481.359 811.686 l 481.359 700.567 l
 h
367.215 766.469 m S Q
0.470588 0 0 rg
276.465 407.827 m 367.215 317.104 l 367.215 206.018 l 276.465 296.741 l
 h
276.465 407.827 m f*
0 g
q 1 0 0 -0.999699 0 1083.342651 cm
276.465 675.719 m 367.215 766.469 l 367.215 877.589 l 276.465 786.839 l
 h
276.465 675.719 m S Q
0.235294 0 0 rg
367.215 206.018 m 457.965 115.296 l 572.109 181.179 l 481.359 271.901 l
 h
367.215 206.018 m f*
0 g
q 1 0 0 -0.999699 0 1083.342651 cm
367.215 877.589 m 457.965 968.339 l 572.109 902.436 l 481.359 811.686 l
 h
367.215 877.589 m S Q
0.235294 0 0 rg
457.965 115.296 m 457.965 4.21 l 572.109 70.093 l 572.109 181.179 l h
457.965 115.296 m f*
0 g
q 1 0 0 -0.999699 0 1083.342651 cm
457.965 968.339 m 457.965 1079.458 l 572.109 1013.555 l 572.109 902.436
 l h
457.965 968.339 m S Q
0.235294 0 0 rg
367.215 206.018 m 457.965 115.296 l 457.965 4.21 l 367.215 94.932 l h
367.215 206.018 m f*
0 g
q 1 0 0 -0.999699 0 1083.342651 cm
367.215 877.589 m 457.965 968.339 l 457.965 1079.458 l 367.215 988.708 
l h
367.215 877.589 m S Q
0.941176 0.47451 0 rg
276.465 629.995 m 367.215 539.272 l 481.359 605.155 l 390.609 695.878 l
 h
276.465 629.995 m f*
0 g
q 1 0 0 -0.999699 0 1083.342651 cm
276.465 453.484 m 367.215 544.234 l 481.359 478.332 l 390.609 387.582 l
 h
276.465 453.484 m S Q
0.941176 0.47451 0 rg
367.215 539.272 m 367.215 428.186 l 481.359 494.069 l 481.359 605.155 l
 h
367.215 539.272 m f*
0 g
q 1 0 0 -0.999699 0 1083.342651 cm
367.215 544.234 m 367.215 655.354 l 481.359 589.451 l 481.359 478.332 l
 h
367.215 544.234 m S Q
0.941176 0.47451 0 rg
276.465 629.995 m 367.215 539.272 l 367.215 428.186 l 276.465 518.909 l
 h
276.465 629.995 m f*
0 g
q 1 0 0 -0.999699 0 1083.342651 cm
276.465 453.484 m 367.215 544.234 l 367.215 655.354 l 276.465 564.604 l
 h
276.465 453.484 m S Q
1 0.937255 0.333333 rg
367.215 650.358 m 457.965 559.632 l 572.109 625.515 l 481.359 716.237 l
 h
367.215 650.358 m f*
0 g
q 1 0 0 -0.999699 0 1083.342651 cm
367.215 433.115 m 457.965 523.869 l 572.109 457.966 l 481.359 367.216 l
 h
367.215 433.115 m S Q
1 0.937255 0.333333 rg
457.965 559.632 m 457.965 448.55 l 572.109 514.432 l 572.109 625.515 l 
h
457.965 559.632 m f*
0 g
q 1 0 0 -0.999699 0 1083.342651 cm
457.965 523.869 m 457.965 634.984 l 572.109 569.082 l 572.109 457.966 l
 h
457.965 523.869 m S Q
1 0.937255 0.333333 rg
367.215 650.358 m 457.965 559.632 l 457.965 448.55 l 367.215 539.272 l 
h
367.215 650.358 m f*
0 g
q 1 0 0 -0.999699 0 1083.342651 cm
367.215 433.115 m 457.965 523.869 l 457.965 634.984 l 367.215 544.234 l
 h
367.215 433.115 m S Q
0.470588 0 0 rg
937.945 646.515 m 1028.695 555.792 l 1142.84 621.675 l 1052.09 712.397 
l h
937.945 646.515 m f*
0 g
q 1 0 0 -0.999699 0 1083.342651 cm
937.945 436.96 m 1028.695 527.71 l 1142.84 461.807 l 1052.09 371.057 l 
h
937.945 436.96 m S Q
0.470588 0 0 rg
1028.695 555.792 m 1028.695 444.706 l 1142.84 510.589 l 1142.84 621.675
 l h
1028.695 555.792 m f*
0 g
q 1 0 0 -0.999699 0 1083.342651 cm
1028.695 527.71 m 1028.695 638.829 l 1142.84 572.927 l 1142.84 461.807 
l h
1028.695 527.71 m S Q
0.470588 0 0 rg
937.945 646.515 m 1028.695 555.792 l 1028.695 444.706 l 937.945 535.429
 l h
937.945 646.515 m f*
0 g
q 1 0 0 -0.999699 0 1083.342651 cm
937.945 436.96 m 1028.695 527.71 l 1028.695 638.829 l 937.945 548.079 l
 h
937.945 436.96 m S Q
0.705882 0.0784314 0 rg
937.945 757.6 m 1028.695 666.874 l 1142.84 732.757 l 1052.09 823.483 l 
h
937.945 757.6 m f*
0 g
q 1 0 0 -0.999699 0 1083.342651 cm
937.945 325.84 m 1028.695 416.594 l 1142.84 350.692 l 1052.09 259.938 l
 h
937.945 325.84 m S Q
0.705882 0.0784314 0 rg
1028.695 666.874 m 1028.695 555.792 l 1142.84 621.675 l 1142.84 732.757
 l h
1028.695 666.874 m f*
0 g
q 1 0 0 -0.999699 0 1083.342651 cm
1028.695 416.594 m 1028.695 527.71 l 1142.84 461.807 l 1142.84 350.692 
l h
1028.695 416.594 m S Q
0.705882 0.0784314 0 rg
937.945 757.6 m 1028.695 666.874 l 1028.695 555.792 l 937.945 646.515 l
 h
937.945 757.6 m f*
0 g
q 1 0 0 -0.999699 0 1083.342651 cm
937.945 325.84 m 1028.695 416.594 l 1028.695 527.71 l 937.945 436.96 l 
h
937.945 325.84 m S Q
0.705882 0.0784314 0 rg
823.797 691.718 m 914.551 600.995 l 1028.695 666.874 l 937.945 757.6 l 
h
823.797 691.718 m f*
0 g
q 1 0 0 -0.999699 0 1083.342651 cm
823.797 391.743 m 914.551 482.493 l 1028.695 416.594 l 937.945 325.84 l
 h
823.797 391.743 m S Q
0.705882 0.0784314 0 rg
914.551 600.995 m 914.551 489.909 l 1028.695 555.792 l 1028.695 666.874
 l h
914.551 600.995 m f*
0 g
q 1 0 0 -0.999699 0 1083.342651 cm
914.551 482.493 m 914.551 593.612 l 1028.695 527.71 l 1028.695 416.594 
l h
914.551 482.493 m S Q
0.705882 0.0784314 0 rg
823.797 691.718 m 914.551 600.995 l 914.551 489.909 l 823.797 580.632 l
 h
823.797 691.718 m f*
0 g
q 1 0 0 -0.999699 0 1083.342651 cm
823.797 391.743 m 914.551 482.493 l 914.551 593.612 l 823.797 502.862 l
 h
823.797 391.743 m S Q
0.705882 0.0784314 0 rg
709.652 625.835 m 800.402 535.112 l 914.547 600.995 l 823.797 691.718 l
 h
709.652 625.835 m f*
0 g
q 1 0 0 -0.999699 0 1083.342651 cm
709.652 457.646 m 800.402 548.396 l 914.547 482.493 l 823.797 391.743 l
 h
709.652 457.646 m S Q
0.705882 0.0784314 0 rg
800.402 535.112 m 800.402 424.026 l 914.547 489.909 l 914.547 600.995 l
 h
800.402 535.112 m f*
0 g
q 1 0 0 -0.999699 0 1083.342651 cm
800.402 548.396 m 800.402 659.515 l 914.547 593.612 l 914.547 482.493 l
 h
800.402 548.396 m S Q
0.705882 0.0784314 0 rg
709.652 625.835 m 800.402 535.112 l 800.402 424.026 l 709.652 514.749 l
 h
709.652 625.835 m f*
0 g
q 1 0 0 -0.999699 0 1083.342651 cm
709.652 457.646 m 800.402 548.396 l 800.402 659.515 l 709.652 568.765 l
 h
709.652 457.646 m S Q
1 0.937255 0.333333 rg
823.797 913.886 m 914.551 823.163 l 1028.695 889.046 l 937.945 979.768 
l h
823.797 913.886 m f*
0 g
q 1 0 0 -0.999699 0 1083.342651 cm
823.797 169.508 m 914.551 260.258 l 1028.695 194.355 l 937.945 103.605 
l h
823.797 169.508 m S Q
1 0.937255 0.333333 rg
914.551 823.163 m 914.551 712.077 l 1028.695 777.96 l 1028.695 889.046 
l h
914.551 823.163 m f*
0 g
q 1 0 0 -0.999699 0 1083.342651 cm
914.551 260.258 m 914.551 371.378 l 1028.695 305.475 l 1028.695 194.355
 l h
914.551 260.258 m S Q
1 0.937255 0.333333 rg
823.797 913.886 m 914.551 823.163 l 914.551 712.077 l 823.797 802.8 l h
823.797 913.886 m f*
0 g
q 1 0 0 -0.999699 0 1083.342651 cm
823.797 169.508 m 914.551 260.258 l 914.551 371.378 l 823.797 280.628 l
 h
823.797 169.508 m S Q
1 0.937255 0.333333 rg
709.652 848.003 m 800.402 757.28 l 914.547 823.163 l 823.797 913.886 l 
h
709.652 848.003 m f*
0 g
q 1 0 0 -0.999699 0 1083.342651 cm
709.652 235.411 m 800.402 326.161 l 914.547 260.258 l 823.797 169.508 l
 h
709.652 235.411 m S Q
1 0.937255 0.333333 rg
800.402 757.28 m 800.402 646.194 l 914.547 712.077 l 914.547 823.163 l 
h
800.402 757.28 m f*
0 g
q 1 0 0 -0.999699 0 1083.342651 cm
800.402 326.161 m 800.402 437.28 l 914.547 371.378 l 914.547 260.258 l 
h
800.402 326.161 m S Q
1 0.937255 0.333333 rg
709.652 848.003 m 800.402 757.28 l 800.402 646.194 l 709.652 736.917 l 
h
709.652 848.003 m f*
0 g
q 1 0 0 -0.999699 0 1083.342651 cm
709.652 235.411 m 800.402 326.161 l 800.402 437.28 l 709.652 346.53 l h
709.652 235.411 m S Q
1 0.937255 0.333333 rg
595.508 782.12 m 686.258 691.397 l 800.402 757.28 l 709.652 848.003 l h
595.508 782.12 m f*
0 g
q 1 0 0 -0.999699 0 1083.342651 cm
595.508 301.313 m 686.258 392.063 l 800.402 326.161 l 709.652 235.411 l
 h
595.508 301.313 m S Q
1 0.937255 0.333333 rg
686.258 691.397 m 686.258 580.311 l 800.402 646.194 l 800.402 757.28 l 
h
686.258 691.397 m f*
0 g
q 1 0 0 -0.999699 0 1083.342651 cm
686.258 392.063 m 686.258 503.183 l 800.402 437.28 l 800.402 326.161 l 
h
686.258 392.063 m S Q
1 0.937255 0.333333 rg
595.508 782.12 m 686.258 691.397 l 686.258 580.311 l 595.508 671.038 l 
h
595.508 782.12 m f*
0 g
q 1 0 0 -0.999699 0 1083.342651 cm
595.508 301.313 m 686.258 392.063 l 686.258 503.183 l 595.508 412.429 l
 h
595.508 301.313 m S Q
907.059 113.202 m 928.09 113.202 938.605 119.608 938.605 132.421 c 938.605
 138.159 935.988 142.858 930.762 146.515 c 925.543 150.179 918.16 152.272
 908.621 152.796 c 901.828 153.19 898.434 156.194 898.434 161.811 c 898.434
 164.686 899.379 167.034 901.277 168.858 c 903.172 170.69 905.621 171.608
 908.621 171.608 c 916.465 171.608 l 921.297 171.608 925.473 173.143 928.996
 176.218 c 932.527 179.288 934.293 182.913 934.293 187.093 c 934.293 191.663
 932.332 195.288 928.418 197.968 c 924.5 200.655 919.141 201.999 912.34 
201.999 c 907.246 201.999 903 201.374 899.605 200.124 c 896.207 198.882 
893.922 197.515 892.746 196.015 c 891.566 194.515 890.16 193.14 888.527 
191.89 c 886.902 190.647 884.973 190.03 882.746 190.03 c 880.129 190.03 
877.875 191.007 875.98 192.968 c 874.094 194.936 873.152 197.225 873.152
 199.843 c 873.152 205.456 877.266 210.483 885.496 214.921 c 893.723 219.366
 903.066 221.593 913.527 221.593 c 925.41 221.593 935.109 218.327 942.621
 211.796 c 950.141 205.265 953.902 197.159 953.902 187.483 c 953.902 182.128
 952.527 177.456 949.777 173.468 c 947.035 169.487 942.465 165.6 936.059
 161.811 c 950.828 154.624 958.215 144.757 958.215 132.218 c 958.215 127.507
 957.426 123.065 955.855 118.89 c 954.293 114.71 951.746 110.628 948.215
 106.64 c 944.684 102.647 939.422 99.475 932.434 97.124 c 925.441 94.78 
917.176 93.608 907.637 93.608 c 895.613 93.608 885.91 95.14 878.527 98.202
 c 871.152 101.272 867.465 105.296 867.465 110.265 c 867.465 113.015 868.41
 115.331 870.309 117.218 c 872.203 119.112 874.52 120.061 877.262 120.061
 c 878.574 120.061 879.91 119.702 881.277 118.983 c 882.652 118.265 883.988
 117.475 885.293 116.624 c 886.605 115.78 889.152 114.999 892.934 114.28
 c 896.723 113.561 901.434 113.202 907.059 113.202 c h
907.059 113.202 m f
1079.316 116.14 m 1087.93 116.14 1092.238 112.874 1092.238 106.343 c 1092.238
 99.811 1087.93 96.546 1079.316 96.546 c 1056.566 96.546 l 1056.566 103.405
 l 1047.16 96.999 1037.293 93.796 1026.973 93.796 c 1012.336 93.796 1000.605
 98.171 991.785 106.921 c 982.973 115.679 978.566 126.53 978.566 139.468
 c 978.566 152.405 982.973 163.218 991.785 171.905 c 1000.605 180.593 1012.402
 184.936 1027.176 184.936 c 1038.539 184.936 1048.336 181.671 1056.566 175.14
 c 1056.566 199.249 l 1053.441 199.249 l 1049.254 199.249 1046.051 199.929
 1043.832 201.296 c 1041.613 202.671 1040.504 205.253 1040.504 209.046 c
 1040.504 212.702 1041.613 215.218 1043.832 216.593 c 1046.051 217.968 1049.254
 218.655 1053.441 218.655 c 1076.176 218.655 l 1076.176 116.14 l h
1056.566 139.077 m 1056.566 146.921 1053.887 153.257 1048.535 158.093 c
 1043.18 162.925 1036.059 165.343 1027.176 165.343 c 1018.414 165.343 1011.387
 162.827 1006.098 157.796 c 1000.805 152.765 998.16 146.655 998.16 139.468
 c 998.16 132.018 1000.871 125.811 1006.301 120.843 c 1011.727 115.882 1018.746
 113.405 1027.363 113.405 c 1035.988 113.405 1043.008 115.85 1048.426 120.749
 c 1053.852 125.655 1056.566 131.765 1056.566 139.077 c h
1056.566 139.077 m f
Q Q
showpage
%%Trailer
end restore
%%EOF
